{
  "type": "service_account",
  "project_id": "adept-snow-279304",
  "private_key_id": "16973d695d1483013044b8e426b60f318ed70eb8",
  "private_key": "-----BEGIN PRIVATE KEY-----\nMIIEvQIBADANBgkqhkiG9w0BAQEFAASCBKcwggSjAgEAAoIBAQDTD+Kta7kxbGn1\nsmL7C5hkeAVPsYTvDsxDqvnDcSZDkpe2CB2xTPnGWKv0BUzAZr12Ym8hUGY/6n18\nmSn+d7zYA/6Ro2O+vcq6/Tnf4L+cwmD1DupEoE6CEEApN5MSKcUamYhD96n52VRb\nK7Hj2OxVitow6pqRe5eXDoE3sLAUVwUwNydRi3Ug8Yjk3HvUrxgZE29aDxe+z4OY\nQMxT4XVHfVv3qruvkJYbq2wo7idv6fVdrNI8Att6H8wa03qvuDw7EFkAu8mJAB8g\nj/e0/yXHNXCinHQdONajsy64i+YtoVxDJfZ7h8xmDI/lJLhfOubgOddJeYtKUv10\n7XBYizF9AgMBAAECggEAM52kqpMX2u+fuSO7Q5hKGDXm3J61+w2UJC9Nvf9vo2JY\nAj8ZXdkMk3ZvdPGP29S0XF2FvnCuVM64ig5d//qR3wUZDk5WMBkzmUegzfClg4Vg\n10Viws4ubO3i9wF9kNlQt+jYs4B/m9fLorE8o5NS9reKlSBmlRIT2DAGp1MpOIu+\nv9lhmfE7PrP6dUr84KC2uPAWg7S/uEW91MsHP/3EUAN1UBz4HvyERX7QmPG3sENI\nKTm0W5LTOuKmgkJOu65p3dIvQxKekU0XVjx8hGGA0iwRwF+1Yw2udYdZSMR8Qrj0\nrXF9NAZLQZRQUTbe8IQjV4pkI5ay/lNcqg1TcE8Y2QKBgQDuygZYVYB3fuiSuQCX\n28MhDOwW1vS8PXWXfeuM7yhewhrMqRQGcCYYx/fNVNFUCA2FHrEUPkk7S23ldL9g\ncAhbrrKqkhqdCYEjdzdVf02DjNuAFOuOE5WMkQhQ9XnYVW4PyND4YwORpkFrXqkk\nKiFhk74MikPV6mHlUroLzSNhJQKBgQDiRkJKowNjgix3cFbUla9vPIGh+3c7gecm\n7yIAkXFMIRZlcvpsJBSQU499DMl7S8wfm3S+JHTKQ2vp8tWxZUG2RcX6eXodNZdj\nJN7kljmjivrRopJ0SorOjUsuIp+byZb9lPO2PvSBeo/0AOYz7+uW1YOzG4TohfSR\nikqoQ1f7eQKBgD5BEVJqSCnfPkcyUENHGiI9ujdiJ0AETeoG/CgsGbxKoq4EzqG3\nD1eamrI/kKt1xgCUtdnvOyxoR+hwfYxo6OTuMMpjeOjEF5TledmibNUFHhzQV3Ed\nDfotvZtNxExwSVd4JXL8bWvFinyxmytAiJ9l40Bls7XLe2ZMIRD+lGC5AoGBANnP\n5BRQovxw3DkFDLCKflvHlMnGdNn1i/swijydxMARwataaLEccicUKLWpT3G+Xvm1\n/UTjdwEUsZZ8STQAUqcQtykLMn9XjSjE30KPUWCaciLGKdCDyOZXoJ0Cez3Naekk\nLw2pwFe7EUNCclZghxmk4qfQv7nM6MYIpyEd4l2RAoGACVjAex3GugRd5yGJD/N6\nH+hQgY7R6w0aixWFHsMuMAAE0ZM025d68zPOFzmqhUm1ecEKzmg0R9P/FMMIm4Wd\nK3f9WwdJOGqLA8Q91x0dXg64d3XWkr4zKEm79+HN0K/HYwi8b+fNfOWfkWMK15Os\nUXAraTFuadvPks3v2wnsRgg=\n-----END PRIVATE KEY-----\n",
  "client_email": "felipex9744-gmail-com@adept-snow-279304.iam.gserviceaccount.com",
  "client_id": "104894160797591560171",
  "auth_uri": "https://accounts.google.com/o/oauth2/auth",
  "token_uri": "https://oauth2.googleapis.com/token",
  "auth_provider_x509_cert_url": "https://www.googleapis.com/oauth2/v1/certs",
  "client_x509_cert_url": "https://www.googleapis.com/robot/v1/metadata/x509/felipex9744-gmail-com%40adept-snow-279304.iam.gserviceaccount.com"
}
